%YAML 1.1
%TAG !u! tag:unity3d.com,2011:
--- !u!74 &7400000
AnimationClip:
  m_ObjectHideFlags: 0
  m_CorrespondingSourceObject: {fileID: 0}
  m_PrefabInstance: {fileID: 0}
  m_PrefabAsset: {fileID: 0}
  m_Name: enemy_walk
  serializedVersion: 6
  m_Legacy: 0
  m_Compressed: 0
  m_UseHighQualityCurve: 1
  m_RotationCurves: []
  m_CompressedRotationCurves: []
  m_EulerCurves: []
  m_PositionCurves: []
  m_ScaleCurves: []
  m_FloatCurves: []
  m_PPtrCurves:
  - curve:
    - time: 0
      value: {fileID: 21300000, guid: 36e92e56ea6661742b5528901996c464, type: 3}
    - time: 0.083333336
      value: {fileID: 21300000, guid: 482f07b2d85aaae4fbc125802970c2b9, type: 3}
    - time: 0.16666667
      value: {fileID: 21300000, guid: dc4c285988aeb784cadb4186bbc8415d, type: 3}
    - time: 0.25
      value: {fileID: 21300000, guid: b3f42ed48bdb6bb4d8c0dd6bcb59eaea, type: 3}
    - time: 0.33333334
      value: {fileID: 21300000, guid: cc1a563e78224904ebb9910b65a8009d, type: 3}
    - time: 0.41666666
      value: {fileID: 21300000, guid: 0064bf88dadd5634b9264a26c9389c31, type: 3}
    - time: 0.5
      value: {fileID: 21300000, guid: 6f0363ed928c00c449c70ec192d0cfa7, type: 3}
    - time: 0.5833333
      value: {fileID: 21300000, guid: f61488bf4195be543bb3250374808d9d, type: 3}
    - time: 0.6666667
      value: {fileID: 21300000, guid: ed06fff1e3a90f544bb0d2735af16d8b, type: 3}
    - time: 0.75
      value: {fileID: 21300000, guid: 825d99d7d62861a4a89411f8ee8d16f7, type: 3}
    attribute: m_Sprite
    path: 
    classID: 212
    script: {fileID: 0}
  m_SampleRate: 12
  m_WrapMode: 0
  m_Bounds:
    m_Center: {x: 0, y: 0, z: 0}
    m_Extent: {x: 0, y: 0, z: 0}
  m_ClipBindingConstant:
    genericBindings:
    - serializedVersion: 2
      path: 0
      attribute: 0
      script: {fileID: 0}
      typeID: 212
      customType: 23
      isPPtrCurve: 1
    pptrCurveMapping:
    - {fileID: 21300000, guid: 36e92e56ea6661742b5528901996c464, type: 3}
    - {fileID: 21300000, guid: 482f07b2d85aaae4fbc125802970c2b9, type: 3}
    - {fileID: 21300000, guid: dc4c285988aeb784cadb4186bbc8415d, type: 3}
    - {fileID: 21300000, guid: b3f42ed48bdb6bb4d8c0dd6bcb59eaea, type: 3}
    - {fileID: 21300000, guid: cc1a563e78224904ebb9910b65a8009d, type: 3}
    - {fileID: 21300000, guid: 0064bf88dadd5634b9264a26c9389c31, type: 3}
    - {fileID: 21300000, guid: 6f0363ed928c00c449c70ec192d0cfa7, type: 3}
    - {fileID: 21300000, guid: f61488bf4195be543bb3250374808d9d, type: 3}
    - {fileID: 21300000, guid: ed06fff1e3a90f544bb0d2735af16d8b, type: 3}
    - {fileID: 21300000, guid: 825d99d7d62861a4a89411f8ee8d16f7, type: 3}
  m_AnimationClipSettings:
    serializedVersion: 2
    m_AdditiveReferencePoseClip: {fileID: 0}
    m_AdditiveReferencePoseTime: 0
    m_StartTime: 0
    m_StopTime: 0.8333333
    m_OrientationOffsetY: 0
    m_Level: 0
    m_CycleOffset: 0
    m_HasAdditiveReferencePose: 0
    m_LoopTime: 1
    m_LoopBlend: 0
    m_LoopBlendOrientation: 0
    m_LoopBlendPositionY: 0
    m_LoopBlendPositionXZ: 0
    m_KeepOriginalOrientation: 0
    m_KeepOriginalPositionY: 1
    m_KeepOriginalPositionXZ: 0
    m_HeightFromFeet: 0
    m_Mirror: 0
  m_EditorCurves: []
  m_EulerEditorCurves: []
  m_HasGenericRootTransform: 0
  m_HasMotionFloatCurves: 0
  m_Events: []
